data/feb27_test8.csv

#Digilent WaveForms Oscilloscope Acquisition
#Device Name: ADP3450
#Serial Number: SN:210018B48893
#Date Time: 2025-02-27 13:31:34.562.794.390
#Sample rate: 2.12766e+06Hz
#Samples: 32768
#Trigger: Source: Channel 1 Type: Edge Condition: Rising Level: 2.265 V Hyst.: Auto HoldOff: 0 s
#Channel 1: Range: 50 mV/div Offset: -2.22 V Attenuation: 1 X Coupling: DC Bandwidth: Full Sample Mode: Average

- CH1 = TIA output
- TX square wave @10kHz
- x = 30cm
- TX ic = 24mA, x2 LED
- RX reverse bias = 1V
- TIA Rf = 1.0Mohm
- TIA Cf = 1pF
- Photodiode: PDB-C156
Time (s),Channel 1 (V)
-0.007391612860034702,2.197459553092782
-0.007391142860034702,2.206543929332443
-0.007390672860034702,2.213150748415834
-0.007390202860034702,2.206543929332443
-0.007389732860034702,2.21232489603041
-0.007389262860034702,2.22306097704092
-0.007388792860034702,2.223886829426344
-0.007388322860034702,2.235448762822277
-0.007387852860034702,2.243707286676515
-0.007387382860034702,2.259398481999568
-0.007386912860034702,2.274263824937197
-0.007386442860034702,2.287477463103978
-0.007385972860034703,2.280870644020587
-0.007385502860034702,2.280044791635163
-0.007385032860034702,2.288303315489402
-0.007384562860034702,2.298213544114487
-0.007384092860034702,2.297387691729063
-0.007383622860034702,2.302342806041607
-0.007383152860034702,2.301516953656183
-0.007382682860034702,2.299039396499911
-0.007382212860034702,2.305646215583302
-0.007381742860034702,2.305646215583302
-0.007381272860034702,2.311427182281268
-0.007380802860034702,2.310601329895845
-0.007380332860034702,2.306472067968726
-0.007379862860034702,2.303994510812454
-0.007379392860034702,2.308949625124997
-0.007378922860034702,2.317208148979235
-0.007378452860034702,2.315556444208388
-0.007377982860034702,2.317208148979235
-0.007377512860034702,2.317208148979235
-0.007377042860034702,2.315556444208388
-0.007376572860034702,2.320511558520931
-0.007376102860034702,2.329595934760593
-0.007375632860034702,2.327944229989745
-0.007375162860034702,2.322163263291778
-0.007374692860034702,2.32464082044805
-0.007374222860034702,2.322163263291778
-0.007373752860034702,2.318034001364659
-0.007373282860034702,2.312253034666692
-0.007372812860034702,2.309775477510421
-0.007372342860034702,2.307297920354149
-0.007371872860034702,2.304820363197878
-0.007371402860034702,2.307297920354149
-0.007370932860034702,2.306472067968726
-0.007370462860034702,2.305646215583302
-0.007369992860034702,2.295735986958216
-0.007369522860034702,2.301516953656183
-0.007369052860034702,2.300691101270759
-0.007368582860034702,2.302342806041607
-0.007368112860034702,2.311427182281268
-0.007367642860034702,2.308949625124997
-0.007367172860034702,2.311427182281268
-0.007366702860034702,2.313078887052116
-0.007366232860034702,2.312253034666692
-0.007365762860034702,2.321337410906354
-0.007365292860034702,2.317208148979235
-0.007364822860034702,2.320511558520931
-0.007364352860034702,2.321337410906354
-0.007363882860034702,2.326292525218897
-0.007363412860034702,2.325466672833473
-0.007362942860034702,2.320511558520931
-0.007362472860034702,2.31390473943754
-0.007362002860034702,2.312253034666692
-0.007361532860034702,2.304820363197878
-0.007361062860034702,2.306472067968726
-0.007360592860034702,2.301516953656183
-0.007360122860034703,2.303994510812454
-0.007359652860034702,2.297387691729063
-0.007359182860034702,2.291606725031097
-0.007358712860034702,2.29656183934364
-0.007358242860034702,2.295735986958216
-0.007357772860034702,2.299039396499911
-0.007357302860034702,2.29656183934364
-0.007356832860034702,2.298213544114487
-0.007356362860034702,2.303994510812454
-0.007355892860034702,2.302342806041607
-0.007355422860034702,2.300691101270759
-0.007354952860034702,2.306472067968726
-0.007354482860034702,2.312253034666692
-0.007354012860034702,2.314730591822964
-0.007353542860034702,2.320511558520931
-0.007353072860034702,2.317208148979235
-0.007352602860034702,2.321337410906354
-0.007352132860034702,2.322989115677202
-0.007351662860034702,2.323814968062626
-0.007351192860034702,2.328770082375169
-0.007350722860034702,2.319685706135507
-0.007350252860034702,2.32464082044805
-0.007349782860034702,2.317208148979235
-0.007349312860034702,2.312253034666691
-0.007348842860034702,2.311427182281268
-0.007348372860034702,2.308123772739573
-0.007347902860034702,2.301516953656183
-0.007347432860034702,2.297387691729063
-0.007346962860034702,2.294910134572792
-0.007346492860034702,2.297387691729063
-0.007346022860034702,2.29656183934364
-0.007345552860034702,2.306472067968726
-0.007345082860034702,2.303168658427031
-0.007344612860034702,2.304820363197878
-0.007344142860034702,2.31390473943754
-0.007343672860034702,2.317208148979235
-0.007343202860034702,2.314730591822964
-0.007342732860034702,2.31390473943754
-0.007342262860034702,2.317208148979235
-0.007341792860034702,2.319685706135507
-0.007341322860034702,2.315556444208388
-0.007340852860034702,2.321337410906354
-0.007340382860034702,2.332073491916864
-0.007339912860034702,2.321337410906354
-0.007339442860034702,2.314730591822964
-0.007338972860034702,2.313078887052116
-0.007338502860034702,2.310601329895845
-0.007338032860034702,2.299039396499911
-0.007337562860034702,2.300691101270759
-0.007337092860034702,2.297387691729063
-0.007336622860034702,2.290780872645673
-0.007336152860034702,2.280044791635163
-0.007335682860034702,2.26848285823923
-0.007335212860034702,2.256920924843296
-0.007334742860034702,2.244533139061939
-0.007334272860034702,2.245358991447363
-0.007333802860034702,2.237926319978548
-0.007333332860034702,2.227190238968039
-0.007332862860034702,2.230493648509734
-0.007332392860034702,2.229667796124311
-0.007331922860034702,2.227190238968039
-0.007331452860034702,2.217280010342953
-0.007330982860034702,2.21232489603041
-0.007330512860034702,2.218105862728377
-0.007330042860034702,2.213976600801258
-0.007329572860034702,2.225538534197191
-0.007329102860034702,2.213150748415834
-0.007328632860034702,2.21232489603041
-0.007328162860034702,2.209021486488715
-0.007327692860034702,2.201588815019901
-0.007327222860034702,2.201588815019901
-0.007326752860034702,2.21232489603041
-0.007326282860034702,2.202414667405324
-0.007325812860034702,2.194156143551086
-0.007325342860034702,2.196633700707358
-0.007324872860034702,2.190026881623967
-0.007324402860034702,2.197459553092782
-0.007323932860034702,2.206543929332443
-0.007323462860034703,2.199937110249065
-0.007322992860034702,2.203240519790748
-0.007322522860034702,2.21232489603041
-0.007322052860034702,2.209847338874139
-0.007321582860034702,2.21232489603041
-0.007321112860034702,2.218105862728377
-0.007320642860034702,2.228841943738887
-0.007320172860034702,2.237100467593125
-0.007319702860034702,2.241229729520244
-0.007319232860034702,2.24040387713482
-0.007318762860034702,2.233797058051429
-0.007318292860034702,2.230493648509734
-0.007317822860034702,2.236274615207701
-0.007317352860034702,2.226364386582615
-0.007316882860034702,2.226364386582615
-0.007316412860034702,2.214802453186682
-0.007315942860034702,2.216454157957529
-0.007315472860034702,2.214802453186682
-0.007315002860034702,2.215628305572106
-0.007314532860034702,2.21232489603041
-0.007314062860034702,2.213150748415834
-0.007313592860034702,2.203240519790748
-0.007313122860034702,2.192504438780238
-0.007312652860034702,2.203240519790748
-0.007312182860034702,2.199937110249053
-0.007311712860034702,2.199937110249053
-0.007311242860034702,2.19498199593651
-0.007310772860034702,2.192504438780238
-0.007310302860034702,2.209021486488715
-0.007309832860034702,2.216454157957529
-0.007309362860034702,2.22306097704092
-0.007308892860034702,2.224712681811767
-0.007308422860034702,2.231319500895158
-0.007307952860034702,2.231319500895158
-0.007307482860034702,2.228016091353463
-0.007307012860034702,2.227190238968039
-0.007306542860034702,2.227190238968039
-0.007306072860034702,2.228841943738887
-0.007305602860034702,2.225538534197191
-0.007305132860034702,2.215628305572106
-0.007304662860034702,2.215628305572106
-0.007304192860034702,2.216454157957529
-0.007303722860034702,2.210673191259563
-0.007303252860034702,2.204066372176172
-0.007302782860034702,2.205718076947019
-0.007302312860034702,2.209021486488715
-0.007301842860034702,2.197459553092782
-0.007301372860034702,2.205718076947019
-0.007300902860034702,2.205718076947019
-0.007300432860034702,2.205718076947019
-0.007299962860034702,2.205718076947019
-0.007299492860034702,2.203240519790748
-0.007299022860034702,2.205718076947019
-0.007298552860034702,2.218931715113801
-0.007298082860034702,2.227190238968039
-0.007297612860034703,2.228841943738887
-0.007297142860034702,2.231319500895158
-0.007296672860034702,2.231319500895158
-0.007296202860034702,2.237100467593125
-0.007295732860034702,2.237926319978548
-0.007295262860034702,2.231319500895158
-0.007294792860034702,2.229667796124311
-0.007294322860034702,2.220583419884648
-0.007293852860034702,2.214802453186682
-0.007293382860034702,2.216454157957529
-0.007292912860034702,2.215628305572106
-0.007292442860034702,2.211499043644986
-0.007291972860034702,2.194156143551086
-0.007291502860034702,2.188375176853119
-0.007291032860034702,2.193330291165662
-0.007290562860034702,2.200762962634477
-0.007290092860034702,2.197459553092782
-0.007289622860034702,2.203240519790748
-0.007289152860034702,2.204892224561596
-0.007288682860034702,2.203240519790748
-0.007288212860034702,2.213150748415834
-0.007287742860034702,2.214802453186682
-0.007287272860034702,2.219757567499224
-0.007286802860034702,2.229667796124311
-0.007286332860034702,2.237926319978548
-0.007285862860034702,2.239578024749396
-0.007285392860034702,2.247010696218211
-0.007284922860034702,2.249488253374482
-0.007284452860034702,2.263527743926687
-0.007283982860034702,2.270960415395501
-0.007283512860034702,2.282522348791435
-0.007283042860034702,2.289129167874826
-0.007282572860034702,2.282522348791435
-0.007282102860034702,2.287477463103978
-0.007281632860034702,2.284999905947706
-0.007281162860034702,2.29656183934364
-0.007280692860034702,2.299039396499911
-0.007280222860034702,2.305646215583302
-0.007279752860034702,2.303994510812454
-0.007279282860034702,2.298213544114487
-0.007278812860034702,2.299865248885335
-0.007278342860034702,2.307297920354149
-0.007277872860034702,2.309775477510421
-0.007277402860034702,2.318034001364659
-0.007276932860034702,2.321337410906354
-0.007276462860034702,2.327118377604321
-0.007275992860034702,2.328770082375169
-0.007275522860034702,2.33124763953144
-0.007275052860034702,2.344461277698221
-0.007274582860034702,2.338680311000255
-0.007274112860034702,2.335376901458559
-0.007273642860034702,2.340332015771102
-0.007273172860034702,2.335376901458559
-0.007272702860034702,2.332073491916864
-0.007272232860034702,2.326292525218897
-0.007271762860034702,2.322163263291778
-0.007271292860034702,2.322163263291778
-0.007270822860034702,2.306472067968726
-0.007270352860034702,2.299039396499911
-0.007269882860034702,2.297387691729063
-0.007269412860034702,2.297387691729063
-0.007268942860034702,2.294084282187368
-0.007268472860034702,2.289955020260249
-0.007268002860034702,2.284174053562282
-0.007267532860034702,2.28582575833313
-0.007267062860034702,2.298213544114487
-0.007266592860034702,2.299039396499911
-0.007266122860034702,2.299039396499911
-0.007265652860034702,2.305646215583302
-0.007265182860034702,2.312253034666692
-0.007264712860034702,2.314730591822964
-0.007264242860034702,2.322163263291778
-0.007263772860034702,2.328770082375169
-0.007263302860034702,2.32464082044805
-0.007262832860034702,2.328770082375169
-0.007262362860034702,2.328770082375169
-0.007261892860034702,2.326292525218897
-0.007261422860034702,2.32464082044805
-0.007260952860034702,2.31638229659381
-0.007260482860034702,2.315556444208388
-0.007260012860034702,2.316382296593812
-0.007259542860034702,2.307297920354149
-0.007259072860034702,2.298213544114487
-0.007258602860034702,2.303168658427031
-0.007258132860034702,2.306472067968726
-0.007257662860034702,2.294084282187368
-0.007257192860034702,2.289955020260249
-0.007256722860034702,2.294910134572792
-0.007256252860034702,2.295735986958216
-0.007255782860034702,2.305646215583302
-0.007255312860034702,2.305646215583302
-0.007254842860034702,2.308123772739573
-0.007254372860034702,2.305646215583302
-0.007253902860034702,2.313078887052116
-0.007253432860034702,2.320511558520931
-0.007252962860034702,2.326292525218897
-0.007252492860034702,2.323814968062626
-0.007252022860034702,2.327118377604321
-0.007251552860034702,2.336202753843983
-0.007251082860034702,2.332073491916864
-0.007250612860034702,2.326292525218897
-0.007250142860034702,2.326292525218897
-0.007249672860034702,2.323814968062626
-0.007249202860034702,2.316382296593812
-0.007248732860034702,2.308949625124997
-0.007248262860034702,2.305646215583302
-0.007247792860034702,2.301516953656183
-0.007247322860034702,2.297387691729063
-0.007246852860034702,2.287477463103978
-0.007246382860034702,2.286651610718554
-0.007245912860034702,2.293258429801944
-0.007245442860034702,2.290780872645673
-0.007244972860034702,2.291606725031097
-0.007244502860034702,2.284999905947706
-0.007244032860034702,2.294910134572792
-0.007243562860034702,2.303168658427031
-0.007243092860034702,2.306472067968726
-0.007242622860034702,2.309775477510421
-0.007242152860034702,2.318034001364659
-0.007241682860034702,2.322989115677202
-0.007241212860034702,2.327944229989745
-0.007240742860034702,2.326292525218897
-0.007240272860034702,2.327118377604321
-0.007239802860034702,2.326292525218897
-0.007239332860034702,2.336202753843983
-0.007238862860034702,2.33124763953144
-0.007238392860034702,2.322163263291778
-0.007237922860034702,2.321337410906354
-0.007237452860034702,2.318034001364659
-0.007236982860034702,2.31390473943754
-0.007236512860034702,2.304820363197878
-0.007236042860034702,2.29656183934364
-0.007235572860034702,2.289955020260249
-0.007235102860034703,2.28334820117687
-0.007234632860034702,2.278393086864316
-0.007234162860034702,2.264353596312111
-0.007233692860034702,2.260224334384992
-0.007233222860034702,2.251965810530753
-0.007232752860034702,2.246184843832787
-0.007232282860034702,2.243707286676515
-0.007231812860034702,2.247010696218211
-0.007231342860034702,2.242055581905668
-0.007230872860034702,2.236274615207701
-0.007230402860034702,2.237926319978548
-0.007229932860034702,2.232971205666006
-0.007229462860034702,2.227190238968039
-0.007228992860034702,2.227190238968039
-0.007228522860034702,2.228841943738887
-0.007228052860034702,2.222235124655496
-0.007227582860034702,2.213150748415834
-0.007227112860034702,2.213976600801258
-0.007226642860034702,2.205718076947019
-0.007226172860034702,2.198285405478205
-0.007225702860034702,2.196633700707358
-0.007225232860034702,2.202414667405324
-0.007224762860034702,2.192504438780238
-0.007224292860034702,2.187549324467696
-0.007223822860034702,2.185071767311424
-0.007223352860034702,2.193330291165662
-0.007222882860034702,2.192504438780238
-0.007222412860034702,2.191678586394814
-0.007221942860034702,2.188375176853119
-0.007221472860034702,2.200762962634477
-0.007221002860034702,2.215628305572106
-0.007220532860034702,2.213150748415834
-0.007220062860034702,2.214802453186682
-0.007219592860034702,2.213976600801258
-0.007219122860034702,2.226364386582615
-0.007218652860034702,2.221409272270072
-0.007218182860034702,2.230493648509734
-0.007217712860034702,2.239578024749396
-0.007217242860034702,2.234622910436853
-0.007216772860034702,2.228016091353463
-0.007216302860034702,2.229667796124311
-0.007215832860034702,2.228841943738887
-0.007215362860034702,2.225538534197191
-0.007214892860034702,2.229667796124311
-0.007214422860034702,2.215628305572106
-0.007213952860034702,2.213150748415834
-0.007213482860034702,2.204892224561596
-0.007213012860034702,2.202414667405324
-0.007212542860034702,2.202414667405324
-0.007212072860034702,2.203240519790748
-0.007211602860034702,2.199937110249053
-0.007211132860034702,2.204892224561596
-0.007210662860034702,2.208195634103291
-0.007210192860034702,2.213150748415834
-0.007209722860034702,2.218105862728377
-0.007209252860034703,2.222235124655496
-0.007208782860034702,2.221409272270072
-0.007208312860034702,2.237100467593125
-0.007207842860034702,2.232145353280582
-0.007207372860034702,2.224712681811767
-0.007206902860034702,2.226364386582615
-0.007206432860034702,2.235448762822277
-0.007205962860034702,2.234622910436853
-0.007205492860034702,2.232145353280582
-0.007205022860034702,2.228016091353463
-0.007204552860034702,2.228016091353463
-0.007204082860034702,2.225538534197191
-0.007203612860034702,2.214802453186682
-0.007203142860034702,2.209847338874139
-0.007202672860034702,2.202414667405324
-0.007202202860034702,2.204892224561596
-0.007201732860034702,2.204066372176172
-0.007201262860034702,2.202414667405324
-0.007200792860034702,2.198285405478205
-0.007200322860034702,2.199937110249053
-0.007199852860034702,2.198285405478205
-0.007199382860034702,2.201588815019901
-0.007198912860034702,2.205718076947019
-0.007198442860034702,2.202414667405324
-0.007197972860034702,2.210673191259563
-0.007197502860034702,2.215628305572106
-0.007197032860034702,2.215628305572106
-0.007196562860034702,2.223886829426344
-0.007196092860034702,2.226364386582615
-0.007195622860034702,2.234622910436853
-0.007195152860034702,2.231319500895158
-0.007194682860034702,2.237100467593125
-0.007194212860034702,2.228841943738887
-0.007193742860034702,2.225538534197191
-0.007193272860034702,2.226364386582615
-0.007192802860034702,2.228016091353463
-0.007192332860034702,2.227190238968039
-0.007191862860034702,2.217280010342953
-0.007191392860034702,2.214802453186682
-0.007190922860034702,2.21232489603041
-0.007190452860034702,2.213150748415834
-0.007189982860034702,2.21232489603041
-0.007189512860034702,2.210673191259563
-0.007189042860034702,2.210673191259563
-0.007188572860034702,2.199111257863629
-0.007188102860034702,2.200762962634477
-0.007187632860034702,2.206543929332443
-0.007187162860034702,2.208195634103291
-0.007186692860034702,2.209847338874139
-0.007186222860034702,2.215628305572106
-0.007185752860034702,2.219757567499224
-0.007185282860034702,2.231319500895158
-0.007184812860034702,2.237926319978548
-0.007184342860034702,2.248662400989058
-0.007183872860034702,2.254443367687025
-0.007183402860034702,2.261876039155839
-0.007182932860034702,2.26848285823923
-0.007182462860034702,2.262701891541263
-0.007181992860034702,2.266831153468382
-0.007181522860034702,2.273437972551773
-0.007181052860034702,2.277567234478892
-0.007180582860034702,2.284174053562282
-0.007180112860034702,2.291606725031097
-0.007179642860034702,2.297387691729063
-0.007179172860034702,2.29656183934364
-0.007178702860034702,2.287477463103978
-0.007178232860034702,2.284174053562282
-0.007177762860034702,2.291606725031097
-0.007177292860034702,2.307297920354149
-0.007176822860034702,2.308949625124997
-0.007176352860034702,2.314730591822964
-0.007175882860034702,2.310601329895845
-0.007175412860034702,2.311427182281268
-0.007174942860034702,2.322163263291778
-0.007174472860034702,2.323814968062626
-0.007174002860034702,2.322163263291778
-0.007173532860034702,2.327944229989745
-0.007173062860034702,2.340332015771102
-0.007172592860034702,2.341983720541949
-0.007172122860034702,2.341157868156526
-0.007171652860034702,2.333725196687712
-0.007171182860034702,2.335376901458559
-0.007170712860034702,2.334551049073136
-0.007170242860034702,2.322989115677202
-0.007169772860034702,2.322163263291778
-0.007169302860034702,2.322163263291778
-0.007168832860034702,2.314730591822964
-0.007168362860034702,2.313078887052116
-0.007167892860034702,2.309775477510421
-0.007167422860034702,2.306472067968726
-0.007166952860034702,2.299039396499911
-0.007166482860034702,2.302342806041607
-0.007166012860034702,2.305646215583302
-0.007165542860034702,2.300691101270759
-0.007165072860034702,2.302342806041607
-0.007164602860034702,2.300691101270759
-0.007164132860034702,2.299865248885335
-0.007163662860034702,2.304820363197878
