data/feb27_test_differentialAmp.csv

#Digilent WaveForms Oscilloscope Acquisition
#Device Name: ADP3450
#Serial Number: SN:210018B48893
#Date Time: 2025-02-27 15:06:42.799.807.060
#Sample rate: 2.32558e+06Hz
#Samples: 32768
#Trigger: Source: Channel 2 Type: Edge Condition: Rising Level: 8.4 V Hyst.: Auto HoldOff: 0 s
#Channel 1: Range: 50 mV/div Offset: -2.445 V Attenuation: 1 X Coupling: DC Bandwidth: Full Sample Mode: Average
#Channel 2: Range: 5 V/div Offset: 11 V Attenuation: 1 X Coupling: DC Bandwidth: Full Sample Mode: Average
#Channel 3: Range: 550 mV/div Offset: -4.7 V Attenuation: 1 X Coupling: DC Bandwidth: Full Sample Mode: Average

- CH1 = TIA out, CH2 = TX out, CH3 = DA out
- TX: square wave @10kHz, Ic = 24mA, x2 LED
- x = 30cm
- TIA: reverse bias = 1V, Rf = 1.0Mohm, Cf = 1pF, PDB-C156
- DA: 9V rail, r1=r2=15k, r3=r4=150k, Vin- = 2.2V
Time (s),Channel 1 (V),Channel 2 (V),Channel 3 (V)
-7.31747780465062e-06,2.475262964993577,3.767044599512417,3.039435403304892
-6.887477804650571e-06,2.485173193618663,3.767876031912957,3.073552181644557
-6.457477804650523e-06,2.481869784076968,3.764550302310795,3.099347794535523
-6.027477804650475e-06,2.482695636462392,3.753741681103772,3.126807640516229
-5.597477804650426e-06,2.490128307931206,3.759561707907555,3.155099603041804
-5.167477804650378e-06,2.491780012702054,3.766213167111877,3.170077700849462
-4.737477804650329e-06,2.489302455545782,3.769538896714037,3.170909817394332
-4.307477804650281e-06,2.490128307931206,3.768707464313497,3.175070400118682
-3.877477804650233e-06,2.485999046004085,3.764550302310807,3.179230982843034
-3.447477804651052e-06,2.485173193618664,3.771201761515105,3.180895215932768
-3.017477804651003e-06,2.482695636462392,3.772033193915657,3.170077700849462
-2.587477804650955e-06,2.478566374535272,3.767876031912957,3.160092302311024
-2.157477804650906e-06,2.485999046004087,3.767044599512417,3.143449971413626
-1.727477804650858e-06,2.482695636462392,3.764550302310795,3.115990125432921
-1.29747780465081e-06,2.472785407837306,8.103796000730169,3.099347794535523
-8.674778046507611e-07,2.469481998295611,12.23185786941233,3.091026629086824
-4.374778046507127e-07,2.461223474441372,12.2293635722107,3.049420801843331
-7.477804650664333e-09,2.45213909820171,12.23601503141503,3.003654391875488
4.225221953493841e-07,2.440577164805777,12.24183505821881,2.950398933003816
8.525221953494325e-07,2.43479619810781,12.23934076101719,2.877172677055267
1.282522195349481e-06,2.432318640951538,12.23850932861665,2.811435470010547
1.712522195349529e-06,2.436447902878658,12.24349792301989,2.751523078779917
2.142522195349578e-06,2.424885969482724,12.24516078782097,2.677464706286498
2.572522195349626e-06,2.423234264711877,12.23934076101719,2.609231149607168
3.002522195349674e-06,2.412498183701367,12.23850932861665,2.552647224556017
3.432522195349723e-06,2.410020626545096,12.25098081462475,2.493566949870256
3.862522195349771e-06,2.405891364617946,12.25680084142853,2.438647257908761
4.292522195348952e-06,2.38937431690953,12.25596940902799,2.392880847941084
4.722522195349001e-06,2.392677726451195,12.25846370622961,2.351275020697508
5.152522195349049e-06,2.3893743169095,12.26012657103069,2.313829776178363
5.582522195349097e-06,2.384419202596957,12.25846370622961,2.275552415114349
6.012522195349146e-06,2.377812383513566,12.25430654422691,2.230618121691376
6.442522195349194e-06,2.37863823589899,12.26178943583177,2.194837110261972
6.872522195349243e-06,2.376160678742719,12.27010375983718,2.156559749197958
7.302522195349291e-06,2.372857269201023,12.27592378664096,2.119114504678813
7.732522195349339e-06,2.371205564430176,12.27426092183987,2.089158309063498
8.162522195349388e-06,2.367076302503057,12.27176662463826,2.061698463082792
8.592522195349436e-06,2.359643631034242,12.27093519223771,2.031742267467477
9.022522195349485e-06,2.359643631034242,12.2767552190415,1.993464906403462
9.452522195349533e-06,2.362121188190514,12.2809123810442,1.968501410057367
9.882522195349581e-06,2.362121188190514,12.28590097544744,1.948530612980489
1.031252219534963e-05,2.356340221492547,12.28423811064636,1.936048864807441
1.074252219534968e-05,2.353862664336276,12.28756384024852,1.923567116634393
1.117252219534973e-05,2.36129533580509,12.28673240784798,1.911917485006215
1.160252219534978e-05,2.367902154888472,12.28008094864366,1.912749601551095
1.203252219534896e-05,2.362947040575947,12.28423811064635,1.918574417365163
1.2462522195349e-05,2.357991926263395,12.2850695430469,1.926895582813873
1.289252219534905e-05,2.360469483419666,12.29172100225122,1.934384631717702
1.33225221953491e-05,2.364598745346785,12.29172100225122,1.94520214680101
1.375252219534915e-05,2.369553859659328,12.29005813745014,1.957683894974058
1.41825221953492e-05,2.37863823589899,12.2892267050496,1.985975857499634
1.461252219534925e-05,2.375334826357295,12.29005813745014,2.00927512075599
1.504252219534929e-05,2.3720314168156,12.29172100225122,2.039231316371306
1.547252219534934e-05,2.377812383513566,12.30252962345824,2.071683861621231
1.590252219534939e-05,2.386070907367805,12.29920389385608,2.101640057236546
1.633252219534944e-05,2.377812383513566,12.29504673185338,2.126603553582642
1.676252219534949e-05,2.379464088284414,12.2933838670523,2.14074953484543
1.719252219534954e-05,2.379464088284414,12.29255243465176,2.157391865742827
1.762252219534959e-05,2.381941645440686,12.2892267050496,2.164048798101787
1.805252219534963e-05,2.380289940669838,12.28673240784798,2.174034196640225
1.848252219534968e-05,2.379464088284414,12.29504673185338,2.170705730460745
1.891252219534973e-05,2.385245054982381,12.30419248825932,2.163216681556916
1.934252219534978e-05,2.382767497826091,12.29837246145554,2.163216681556913
1.977252219534896e-05,2.372857269201042,12.297541029055,2.16155244846718
2.020252219534901e-05,2.374508973971871,12.29587816425392,2.154895516108218
2.063252219534906e-05,2.379464088284414,12.29670959665446,2.144910117569779
2.106252219534911e-05,2.376986531128143,12.30086675865716,2.14074953484543
2.149252219534915e-05,2.373683121586447,12.30668678546095,2.123275087403163
2.19225221953492e-05,2.3720314168156,12.31084394746364,2.113289688864724
2.235252219534925e-05,2.381941645440686,12.3058553530604,2.104136406871156
2.27825221953493e-05,2.385245054982381,12.30502392065987,2.093318891787847
2.321252219534935e-05,2.37863823589899,12.30668678546095,2.094983124877587
2.36425221953494e-05,2.380289940669838,12.3058553530604,2.088326192518628
2.407252219534944e-05,2.37863823589899,12.30834965026203,2.07334809471097
2.450252219534949e-05,2.376160678742719,12.31084394746364,2.071683861621231
2.493252219534954e-05,2.371205564430176,12.30834965026203,2.071683861621231
2.536252219534959e-05,2.3720314168156,12.31001251506311,2.068355395441751
2.579252219534964e-05,2.376160678742719,12.30502392065987,2.07750867743532
2.622252219534969e-05,2.374508973971871,12.31001251506311,2.086661959428888
2.665252219534973e-05,2.377812383513566,12.31167537986419,2.104136406871156
2.708252219534978e-05,2.375334826357298,12.31333824466528,2.115786038499357
2.751252219534896e-05,2.376986531128143,12.31915827146905,2.128267786672382
2.794252219534901e-05,2.381115793055262,12.31749540666797,2.14074953484543
2.837252219534906e-05,2.374508973971871,12.31749540666797,2.150734933383868
2.880252219534911e-05,2.380289940669838,12.31250681226472,2.162384565012046
2.923252219534916e-05,2.381941645440686,12.30502392065987,2.167377264281266
2.966252219534921e-05,2.379464088284414,12.30252962345824,2.164048798101787
3.009252219534925e-05,2.38276749782611,12.31333824466527,2.153231283018478
3.05225221953493e-05,2.375334826357295,12.30918108266256,2.134924719031341
3.095252219534935e-05,2.367902154888481,12.30834965026203,2.117450271589074
3.13825221953494e-05,2.36129533580509,12.30668678546095,2.104136406871156
3.181252219534945e-05,2.36129533580509,12.31998970386959,2.098311591057067
3.22425221953495e-05,2.365424597732209,12.32082113627013,2.092486775242977
3.267252219534954e-05,2.376160678742719,12.31001251506311,2.069187511986621
3.310252219534959e-05,2.37863823589899,12.3058553530604,2.057537880358443
3.353252219534964e-05,2.369553859659328,12.3058553530604,2.043391899095655
3.396252219534969e-05,2.367076302503057,12.30419248825932,2.035902850191826
3.439252219534974e-05,2.366250450117633,12.30502392065987,2.033406500557216
3.482252219534979e-05,2.365424597732215,12.30668678546095,2.024253218563631
3.525252219534897e-05,2.368728007273905,12.31167537986419,2.015099936570079
3.568252219534902e-05,2.367076302503057,12.31500110946635,2.018428402749559
3.611252219534906e-05,2.3720314168156,12.31167537986419,2.020092635839299
3.654252219534911e-05,2.373683121586447,12.31084394746364,2.019260519294428
3.697252219534916e-05,2.373683121586447,12.30419248825932,2.030910150922607
3.740252219534921e-05,2.367902154888481,12.31666397426743,2.058369996903313
3.783252219534926e-05,2.3720314168156,12.31915827146905,2.065859045807141
3.826252219534931e-05,2.374508973971871,12.31001251506311,2.07750867743532
3.869252219534935e-05,2.37863823589899,12.31001251506311,2.099143707601936
3.91225221953494e-05,2.375334826357295,12.30834965026203,2.119114504678813
3.955252219534945e-05,2.376160678742719,12.3141696770658,2.14241376793517
3.99825221953495e-05,2.375334826357295,12.31749540666797,2.155727632653088
4.041252219534955e-05,2.376160678742719,12.3141696770658,2.161552448467177
4.08425221953496e-05,2.37863823589899,12.30918108266256,2.159888215377437
4.127252219534965e-05,2.381115793055262,12.31583254186689,2.166545147736396
4.170252219534969e-05,2.37863823589899,12.31583254186689,2.159888215377437
4.213252219534974e-05,2.380289940669838,12.30918108266256,2.151567049928738
4.256252219534892e-05,2.375334826357304,12.31084394746364,2.14574223411466
4.299252219534897e-05,2.3720314168156,12.32331543347175,2.132428369396731
4.342252219534902e-05,2.376160678742719,12.32165256867067,2.121610854313423
4.385252219534907e-05,2.37863823589899,12.32082113627013,2.113289688864724
4.428252219534912e-05,2.3720314168156,12.31583254186689,2.101640057236546
4.471252219534916e-05,2.374508973971871,12.3141696770658,2.086661959428888
4.514252219534921e-05,2.370379712044752,12.30668678546095,2.080005027069929
4.557252219534926e-05,2.363772892961362,12.31583254186689,2.080005027069929
4.600252219534931e-05,2.371205564430176,12.31832683906851,2.07750867743532
4.643252219534936e-05,2.376160678742719,12.31749540666797,2.0725159781661
4.686252219534941e-05,2.381115793055262,12.31666397426743,2.066691162352011
4.729252219534946e-05,2.375334826357295,12.32165256867067,2.063362696172532
4.77225221953495e-05,2.375334826357295,12.31832683906851,2.058369996903313
4.815252219534955e-05,2.374508973971871,12.31250681226472,2.052545181089223
4.85825221953496e-05,2.376986531128143,12.30918108266256,2.050048831454614
4.901252219534965e-05,2.375334826357295,12.30751821786148,2.050880947999484
4.94425221953497e-05,2.375334826357295,12.3141696770658,2.065859045807141
4.987252219534975e-05,2.372031416815606,9.41080773436973,2.074180211255884
5.030252219534893e-05,2.375334826357289,4.105437586541933,2.098311591057023
5.073252219534898e-05,2.387722612138652,3.924185323214516,2.130764136306992
5.116252219534902e-05,2.393503578836619,3.876793676383725,2.169873613915875
5.159252219534907e-05,2.40011039792001,3.86016502837292,2.212311557704239
5.202252219534912e-05,2.411672331315943,3.853513569168598,2.27388818202461
5.245252219534917e-05,2.41745329801391,3.855176433969678,2.329639990530891
5.288252219534922e-05,2.426537674253572,3.849356407165898,2.383727565947432
5.331252219534927e-05,2.429015231409843,3.844367812762655,2.451961122626762
5.374252219534931e-05,2.433144493336962,3.837716353558335,2.515201980036872
5.417252219534936e-05,2.426537674253572,3.838547785958875,2.575114371267503
5.460252219534941e-05,2.435622050493234,3.840210650759955,2.632530412863525
5.503252219534946e-05,2.437273755264082,3.840210650759955,2.694107037183895
5.546252219534951e-05,2.444706426732896,3.836053488757253,2.749026729145307
5.589252219534956e-05,2.45213909820171,3.828570597152392,2.805610654196458
5.63225221953496e-05,2.457920064899677,3.82275057034861,2.859698229613
5.675252219534965e-05,2.465352736368491,3.82275057034861,2.900471940311624
5.71825221953497e-05,2.475262964993577,3.831064894354013,2.942077767555117
5.761252219534975e-05,2.474437112608157,3.824413435149674,2.98118724516406
5.804252219534893e-05,2.476088817378998,3.815267678743764,3.013639790413867
5.847252219534898e-05,2.47361126022273,3.806953354738347,3.05274926802281
5.890252219534903e-05,2.475262964993577,3.802796192735645,3.088530279452215
5.933252219534908e-05,2.481043931691544,3.811941949141588,3.106836843439352
5.976252219534912e-05,2.478566374535272,3.809447651939967,3.138457272144407
6.019252219534917e-05,2.481869784076968,3.807784787138887,3.159260185766154
6.062252219534922e-05,2.49095416031663,3.813604813942668,3.190880614471209
6.105252219534927e-05,2.493431717472901,3.813604813942668,3.216676227362175
6.148252219534932e-05,2.49095416031663,3.801133327934565,3.236647024439052
6.191252219534937e-05,2.488476603160358,3.801133327934565,3.245800306432621
6.234252219534941e-05,2.491780012702054,3.803627625136185,3.258282054605669
6.277252219534946e-05,2.491780012702054,3.804459057536725,3.267435336599237
6.320252219534951e-05,2.49756097940002,3.797807598332405,3.274924385503066
6.363252219534956e-05,2.50169024132714,3.795313301130783,3.262442637330018
6.406252219534961e-05,2.500038536556292,3.797807598332405,3.24996088915697
6.449252219534966e-05,2.498386831785444,3.799470463133485,3.227493742445483
6.492252219534971e-05,2.491780012702054,3.792819003929162,3.203362362644257
6.535252219534975e-05,2.477740522149852,3.797807598332408,3.190880614471173
6.578252219534893e-05,2.479392226920693,3.799470463133482,3.170909817394369
6.621252219534898e-05,2.483521488847815,3.799470463133485,3.154267486496935
6.664252219534903e-05,2.48021807930612,3.795313301130783,3.138457272144407
6.707252219534908e-05,2.476914669764425,3.793650436329703,3.12181494124701
6.750252219534913e-05,2.48021807930612,3.794481868730243,3.108501076529092
6.793252219534918e-05,2.474437112608153,3.791987571528622,3.095187211811174
6.836252219534922e-05,2.472785407837306,3.797807598332405,3.075216414734297
6.879252219534927e-05,2.471959555451882,3.789493274327002,3.05607773420229
6.922252219534932e-05,2.482695636462392,3.78284181512268,3.045260219118981
6.965252219534937e-05,2.478566374535272,3.786167544724842,3.031114237856193
7.008252219534942e-05,2.475262964993577,3.788661841926462,3.021960955862625
7.051252219534947e-05,2.475262964993577,3.786998977125382,3.017800373138276
7.094252219534952e-05,2.484347341233239,3.795313301130783,3.024457305497235
7.137252219534956e-05,2.481869784076968,3.78034751792106,3.029450004766454
7.180252219534961e-05,2.471959555451882,3.78034751792106,3.045260219118981
7.223252219534966e-05,2.47361126022273,3.78284181512268,3.048588685298461
7.266252219534971e-05,2.482695636462392,3.7811789503216,3.068559482375337
7.309252219534976e-05,2.486824898389502,3.776190355918353,3.087698162907361
7.352252219534894e-05,2.481869784076977,3.772864626316204,3.096851444900897
7.395252219534899e-05,2.48021807930612,3.776190355918359,3.106004726894482
7.438252219534904e-05,2.48021807930612,3.78367324752322,3.11515800888805
7.481252219534908e-05,2.472785407837306,3.78367324752322,3.106836843439352
7.524252219534913e-05,2.471959555451882,3.77785322071944,3.095187211811174
7.567252219534918e-05,2.476088817379001,3.775358923517818,3.085201813272735
7.610252219534923e-05,2.478566374535272,3.769538896714037,3.079376997458646
7.653252219534928e-05,2.475262964993577,3.770370329114577,3.077712764368906
7.696252219534933e-05,2.477740522149849,3.767876031912957,3.077712764368906
7.739252219534937e-05,2.471959555451882,3.769538896714037,3.072720065099687
7.782252219534942e-05,2.467004441139339,3.772033193915657,3.05607773420229
7.825252219534947e-05,2.470307850681034,3.775358923517818,3.046092335663851
7.868252219534952e-05,2.469481998295611,3.768707464313497,3.041931752939502
7.911252219534957e-05,2.477740522149849,3.777021788318899,3.031114237856193
7.954252219534962e-05,2.478566374535272,3.777021788318899,3.027785771676714
7.997252219534966e-05,2.474437112608153,3.767044599512417,3.026121538586974
8.040252219534971e-05,2.47361126022273,3.765381734711335,3.022793072407495
8.083252219534976e-05,2.47030785068103,3.762887437509719,3.026121538586988
8.126252219534894e-05,2.467830293524767,3.765381734711331,3.033610587490789
8.169252219534899e-05,2.464526883983067,3.771201761515117,3.044428102574112
8.212252219534904e-05,2.470307850681034,3.771201761515117,3.059406200381769
8.255252219534909e-05,2.475262964993577,3.768707464313497,3.068559482375337
8.298252219534914e-05,2.482695636462392,3.766213167111877,3.092690862176564
8.341252219534918e-05,2.485173193618663,3.762056005109175,3.12098282470214
8.384252219534923e-05,2.48021807930612,3.761224572708635,3.141785738323887
8.427252219534928e-05,2.488476603160358,3.767044599512417,3.160924418855894
8.470252219534933e-05,2.489302455545782,3.775358923517818,3.175902516663551
8.513252219534938e-05,2.487650750774935,3.772864626316197,3.18422368211225
8.556252219534943e-05,2.485173193618663,3.773696058716737,3.180895215932771
8.599252219534947e-05,2.492605865087477,3.767044599512417,3.195041197195558
8.642252219534952e-05,2.490128307931206,3.766213167111877,3.189216381381469
8.685252219534957e-05,2.488476603160358,3.764550302310795,3.189216381381469
8.728252219534962e-05,2.481869784076968,3.761224572708635,3.177566749753291
8.771252219534967e-05,2.482695636462392,3.763718869910255,3.167581351214853
8.814252219534972e-05,2.488476603160358,3.760393140308095,3.153435369952065
8.857252219534976e-05,2.486824898389506,3.757898843106479,3.149274787227674
8.900252219534895e-05,2.484347341233244,3.76039314030809,3.12680764051627
8.943252219534899e-05,2.475262964993577,3.767876031912957,3.115990125432921
8.986252219534904e-05,2.467004441139339,3.766213167111877,3.101844144170133
9.029252219534909e-05,2.475262964993577,3.772864626316197,3.091026629086824
9.072252219534914e-05,2.476914669764425,3.770370329114577,3.087698162907345
9.115252219534919e-05,2.477740522149849,3.764550302310795,3.079376997458646
9.158252219534924e-05,2.478566374535272,3.757898843106474,3.063566783106118
9.201252219534928e-05,2.469481998295611,3.759561707907555,3.072720065099687
9.244252219534933e-05,2.467830293524763,3.760393140308095,3.069391598920208
9.287252219534938e-05,2.472785407837306,3.764550302310795,3.068559482375337
9.330252219534943e-05,2.481869784076968,3.768707464313497,3.061070433471509
9.373252219534948e-05,2.482695636462392,3.769538896714037,3.068559482375337
9.416252219534953e-05,2.481869784076968,3.760393140308095,3.079376997458646
9.459252219534958e-05,2.479392226920696,3.754573113504312,3.087698162907345
9.502252219534962e-05,2.474437112608153,3.757067410705934,3.103508377259872
9.545252219534967e-05,2.481043931691544,3.765381734711335,3.126807640516229
9.588252219534972e-05,2.484347341233239,3.763718869910255,3.136793039054667
9.631252219534977e-05,2.482695636462387,3.757898843106479,3.140953621779017
9.674252219534895e-05,2.480218079306125,3.76039314030809,3.140953621779017
9.7172522195349e-05,2.481869784076968,3.765381734711335,3.141785738323887
9.760252219534905e-05,2.481043931691544,3.772864626316197,3.136793039054667
9.803252219534909e-05,2.476914669764425,3.764550302310795,3.130968223240578
9.846252219534914e-05,2.476088817379001,3.766213167111877,3.12015070815727
9.889252219534919e-05,2.472785407837306,3.767044599512417,3.098515677990653
9.932252219534924e-05,2.475262964993577,3.764550302310795,3.085201813272735
9.975252219534929e-05,2.476914669764425,3.762056005109175,3.074384298189427
0.0001001825221953493,2.476088817379001,3.762887437509715,3.064398899650988
0.0001006125221953494,2.47361126022273,3.841042083160495,3.041931752939502
0.0001010425221953494,2.464526883983067,11.04956099584414,3.035274820580543
