data/TIA_schmitt_levelShift_9vin_3v3out.csv

#Digilent WaveForms Oscilloscope Acquisition
#Device Name: ADP3450
#Serial Number: SN:210018B48893
#Date Time: 2025-02-21 12:52:54.217.222.820
#Sample rate: 5e+07Hz
#Samples: 32768
#Trigger: Source: Channel 2 Type: Edge Condition: Rising Level: 2.1 V Hyst.: Auto HoldOff: 0 s
#Channel 1: Range: 1 V/div Offset: -5 V Attenuation: 1 X Coupling: DC Bandwidth: Full Sample Mode: Average
#Channel 2: Range: 1 V/div Offset: -5 V Attenuation: 1 X Coupling: DC Bandwidth: Full Sample Mode: Average
#Channel 3: Range: 1 V/div Offset: -5 V Attenuation: 1 X Coupling: DC Bandwidth: Full Sample Mode: Average
#Wavegen Channel 1: Running
#Mode: Simple
#Type: DC
#Offset: 3.3 V

Time (s),Channel 1 (V),Channel 2 (V),Channel 3 (V)
-0.0005476349397590362,7.933057765462234,0.1712933673790671,4.948112444121596
-0.0005476149397590362,7.936361175003929,0.1563275841693432,4.946448211031856
-0.0005475949397590361,7.936361175003912,0.1563275841693372,4.939791278672904
-0.0005475749397590361,7.93140606069132,0.1546647193682925,4.941455511762643
-0.0005475549397590361,7.913237308212117,0.1629790433736707,4.943119744852456
-0.0005475349397590361,7.928102651149679,0.1646419081747115,4.96475477501897
-0.0005475149397590361,7.921495832066333,0.1463503953628334,4.95144091030106
-0.0005474949397590361,7.939664584545619,0.1313846121531307,4.943119744852375
-0.0005474749397590362,7.936361175003905,0.1280588825510029,4.941455511762634
-0.0005474549397590362,7.923147536837148,0.1430246657606995,4.939791278672898
-0.0005474349397590362,7.929754355920538,0.1430246657606995,4.971411707377952
-0.0005474149397590362,7.916540717753758,0.1330474769542169,4.953105143390816
-0.0005473949397590362,7.941316289316426,0.1446875305617585,4.944783977942132
-0.0005473749397590361,7.928102651149709,0.124733152948881,4.949776677211318
-0.0005473549397590361,7.933057765462216,0.1430246657606571,4.944783977942171
-0.0005473349397590361,7.928102651149715,0.1313846121531368,4.959762075749731
-0.0005473149397590361,7.934709470233064,0.1313846121531459,4.948112444121579
-0.0005472949397590361,7.92479924160799,0.136373206556372,4.938127045583145
-0.0005472749397590362,7.921495832066303,0.1330474769541957,4.931470113224229
-0.0005472549397590362,7.923147536837148,0.1214074233466542,4.948112444121596
-0.0005472349397590362,7.926450946378843,0.1180816937444931,4.933134346313938
-0.0005472149397590362,7.9214958320663,0.1280588825509756,4.931470113224199
-0.0005471949397590362,7.941316289316472,0.1247331529488145,4.936462812493418
-0.0005471749397590361,7.924799241608032,0.1014530457336891,4.928141647044749
-0.0005471549397590361,7.934709470232992,0.1014530457336225,4.9364628124934
-0.0005471349397590361,7.909933898670457,0.0831615329219432,4.931470113224211
-0.0005471149397590361,7.934709470233088,0.1214074233466058,4.934798579403655
-0.0005470949397590361,7.938012879774774,0.09480158652940306,4.921484714685766
-0.0005470749397590361,7.93636117500392,0.1147559641423138,4.924813180865255
-0.0005470549397590362,7.931406060691386,0.1047787753358493,4.933134346313938
-0.0005470349397590362,7.94957481317071,0.08981299212612548,4.909835083057582
-0.0005470149397590362,7.9214958320663,0.09480158652936677,4.933134346313938
-0.0005469949397590362,7.936361175003929,0.09313872172828663,4.938127045583157
-0.0005469749397590362,7.929754355920551,0.08815012732505442,4.939791278672895
-0.0005469549397590361,7.92479924160805,0.09979018093255361,4.928141647044646
-0.0005469349397590361,7.939664584545559,0.08482439772288419,4.908170849967885
-0.0005469149397590361,7.921495832066324,0.08482439772288117,4.919820481596036
-0.0005468949397590361,7.934709470233094,0.08316153292178288,4.928141647044692
-0.0005468749397590361,7.94131628931645,0.07152147931428975,4.913163549237064
-0.0005468549397590362,7.929754355920517,0.09812731613149163,4.914827782326816
-0.0005468349397590362,7.918192422524605,0.07817293851856277,4.9231489477755
-0.0005468149397590362,7.941316289316472,0.05655569610451749,4.9231489477755
-0.0005467949397590362,7.939664584545625,0.07651007371748264,4.9231489477755
-0.0005467749397590362,7.942967994087314,0.05489283130347668,4.914827782326816
-0.0005467549397590361,7.933057765462221,0.04824137209917555,4.906506616878206
-0.0005467349397590361,7.929754355920593,0.06487002010996139,4.934798579403576
-0.0005467149397590361,7.944619698858155,0.07651007371747054,4.906506616878157
-0.0005466949397590361,7.941316289316463,0.07318434411529728,4.921484714685711
-0.0005466749397590361,7.936361175003938,0.05988142570669075,4.894856985249976
-0.0005466549397590361,7.941316289316459,0.06653288491100007,4.923148947775476
-0.0005466349397590362,7.934709470233082,0.06653288491100007,4.909835083057582
-0.0005466149397590362,7.931406060691386,0.06653288491100007,4.913163549237061
-0.0005465949397590362,7.918192422524605,0.05322996650235634,4.913163549237061
-0.0005465749397590362,7.916540717753758,0.06487002010991905,4.9231489477755
-0.0005465549397590362,7.942967994087272,0.05988142570668772,4.889864285980766
-0.0005465349397590361,7.942967994087266,0.06154429050777693,4.921484714685699
-0.0005465149397590361,7.928102651149715,0.06653288491093957,4.904842383788381
-0.0005464949397590361,7.934709470233079,0.04990423690020213,4.909835083057546
-0.0005464749397590361,7.933057765462255,0.05322996650234121,4.889864285980726
-0.0005464549397590361,7.944619698858146,0.04491564249700016,4.901513917608866
-0.0005464349397590362,7.933057765462225,0.06985861451311497,4.891528519070481
-0.0005464149397590362,7.928102651149691,0.04491564249695479,4.911499316147322
-0.0005463949397590362,7.933057765462234,0.04491564249695479,4.896521218339664
-0.0005463749397590362,7.933057765462234,0.04824137209911505,4.893192752160185
-0.0005463549397590362,7.942967994087303,0.07152147931419901,4.889864285980711
-0.0005463349397590361,7.926450946378915,0.04491564249698504,4.90983508305757
-0.0005463149397590361,7.946271403628883,0.05322996650236239,4.906506616878096
-0.0005462949397590361,7.909933898670469,0.05489283130342526,4.904842383788273
-0.0005462749397590361,7.938012879774798,0.05156710170125806,4.879878887442306
-0.0005462549397590361,7.949574813170689,0.04158991289481481,4.901513917608844
-0.0005462349397590361,7.938012879774771,0.05322996650232307,4.879878887442258
-0.0005462149397590362,7.934709470233082,0.03493845369047222,4.874886188173047
-0.0005461949397590362,7.933057765462234,0.04824137209911505,4.891528519070445
-0.0005461749397590362,7.938012879774777,0.05655569610451749,4.888200052890966
-0.0005461549397590362,7.926450946378843,0.03327558888939119,4.881543120532006
-0.0005461349397590362,7.938012879774756,0.04325277769585562,4.88986428598069
-0.0005461149397590361,7.954529927483236,0.03992704809370745,4.894856985249906
-0.0005460949397590361,7.949574813170608,0.03826418329254779,4.889864285980711
-0.0005460749397590361,7.921495832066364,0.01498407607754337,4.891528519070432
-0.0005460549397590361,7.956181632254092,0.03493845369049944,4.884871586711514
-0.0005460349397590361,7.951226517941552,0.04990423690013558,4.89984968451907
-0.0005460149397590362,7.947923108399826,0.0166469408786356,4.859908090365429
-0.0005459949397590362,7.928102651149691,0.04325277769587377,4.881543120532006
-0.0005459749397590362,7.936361175003929,0.03826418329263248,4.871557721993568
-0.0005459549397590362,7.934709470233082,0.03660131849155235,4.879878887442267
-0.0005459349397590362,7.949574813170684,0.01332121127646839,4.874886188173056
-0.0005459149397590361,7.941316289316442,0.02163553528187083,4.871557721993611
-0.0005458949397590361,7.933057765462221,0.03327558888942144,4.883207353621692
-0.0005458749397590361,7.929754355920617,0.04158991289469079,4.868229255814119
-0.0005458549397590361,7.951226517941573,0.01332121127646839,4.876550421262785
-0.0005458349397590361,7.959485041795802,0.03660131849151,4.87488618817305
-0.0005458149397590361,7.962788451337455,0.01332121127642907,4.876550421262793
-0.0005457949397590362,7.94296799408732,0.01498407607750707,4.879878887442267
-0.0005457749397590362,7.944619698858167,0.01830980567966733,4.876550421262787
-0.0005457549397590362,7.938012879774777,0.01830980567966733,4.891528519070445
-0.0005457349397590362,7.928102651149691,0.01498407607750707,4.871557721993568
-0.0005457149397590362,7.93140606069138,0.01165834647535196,4.881543120531989
-0.0005456949397590361,7.971046975191603,0.01664694087859325,4.879878887442255
-0.0005456749397590361,7.936361175003995,0.01830980567964314,4.87655042126269
-0.0005456549397590361,7.954529927483206,0.01165834647537011,4.849922691826979
-0.0005456349397590361,7.928102651149748,0.0249612648839473,4.864900789634611
-0.0005456149397590361,7.959485041795763,0.001681157668863342,4.866565022724361
-0.0005455949397590362,7.941316289316472,0.001681157668923837,4.873221955083308
-0.0005455749397590362,7.941316289316472,0.03493845369047222,4.873221955083308
-0.0005455549397590362,7.954529927483254,0.006669752072104629,4.893192752160185
-0.0005455349397590362,7.944619698858167,0.0166469408785872,4.861572323455129
-0.0005455149397590362,7.946271403629012,-0.006633166336496753,4.873221955083286
-0.0005454949397590361,7.941316289316489,-0.004970301535367335,4.856579624185964
-0.0005454749397590361,7.946271403628967,0.01997267048072416,4.871557721993562
-0.0005454549397590361,7.933057765462276,0.01332121127642,4.869893488903822
-0.0005454349397590361,7.944619698858209,0.01165834647535802,4.86822925581411
-0.0005454149397590361,7.967743565649962,0.01830980567967036,4.879878887442261
-0.0005453949397590361,7.928102651149724,0.01997267048072113,4.876550421262793
-0.0005453749397590362,7.946271403629015,0.005006887271024496,4.879878887442267
-0.0005453549397590362,7.94296799408732,0.003344022469943475,4.886535819801225
-0.0005453349397590362,7.934709470233082,0.008332616873184762,4.881543120532006
-0.0005453149397590362,7.94957481317071,0.01165834647534592,4.879878887442267
-0.0005452949397590362,7.933057765462264,0.02163553528181034,4.858243857275689
-0.0005452749397590361,7.946271403629021,0.009995481674326278,4.883207353621697
-0.0005452549397590361,7.947923108399821,0.02662412968502138,4.869893488903779
-0.0005452349397590361,7.936361175003971,0.0133212112764321,4.856579624185928
-0.0005452149397590361,7.959485041795781,0.0166469408785872,4.866565022724339
-0.0005451949397590361,7.951226517941516,0.01664694087857813,4.861572323455132
-0.0005451749397590362,7.928102651149709,0.01165834647535196,4.863236556544885
-0.0005451549397590362,7.938012879774777,0.01498407607750707,4.871557721993568
-0.0005451349397590362,7.962788451337492,0.0166469408785872,4.873221955083308
-0.0005451149397590362,7.947923108399863,0.01165834647534592,4.874886188173047
-0.0005450949397590362,7.946271403629018,0.01664694087857813,4.869893488903837
-0.0005450749397590361,7.96278845133745,0.01165834647533382,4.87322195508335
-0.0005450549397590361,7.951226517941576,0.008332616873245257,4.884871586711468
-0.0005450349397590361,7.956181632254077,0.02496126488395334,4.879878887442151
-0.0005450149397590361,7.949574813170698,0.01498407607752219,4.848258458737257
-0.0005449949397590361,7.942967994087318,0.02329840008287232,4.87322195508328
-0.0005449749397590362,7.941316289316484,0.003344022469952549,4.85824385727565
-0.0005449549397590362,7.947923108399863,0.008332616873184762,4.85824385727565
-0.0005449349397590362,7.941316289316472,0.003344022469943475,4.85325115800643
-0.0005449149397590362,7.959485041795796,-0.008296031137619231,4.85325115800643
-0.0005448949397590362,7.952878222712405,0.01165834647534592,4.864900789634609
-0.0005448749397590362,7.956181632254094,0.01498407607750102,4.868229255814082
-0.0005448549397590361,7.941316289316508,0.01830980567961289,4.864900789634615
-0.0005448349397590361,7.95122651794154,0.003344022469985821,4.866565022724354
-0.0005448149397590361,7.946271403629006,0.01498407607749799,4.868229255814091
-0.0005447949397590361,7.941316289316469,0.00999548167424461,4.869893488903815
-0.0005447749397590361,7.939664584545643,-0.001644571933270589,4.863236556544867
-0.0005447549397590362,7.94957481317068,0.01332121127640185,4.861572323455117
-0.0005447349397590362,7.933057765462234,1.829286778320949e-05,4.854915391096171
-0.0005447149397590362,7.934709470233082,-0.003307436734377944,4.854915391096171
-0.0005446949397590362,7.951226517941558,0.005006887271024496,4.85657962418591
-0.0005446749397590362,7.942967994087335,0.01165834647533382,4.858243857275648
-0.0005446549397590361,7.931406060691446,0.001681157668899639,4.84825845873726
-0.0005446349397590361,7.947923108399845,0.01165834647530962,4.861572323455178
-0.0005446149397590361,7.94296799408729,0.001681157668827046,4.874886188172998
-0.0005445949397590361,7.934709470233079,-0.008296031137549661,4.86157232345512
-0.0005445749397590361,7.933057765462225,0.02994985928718253,4.856579624185871
-0.0005445549397590362,7.928102651149737,0.003344022469976747,4.834944594019369
-0.0005445349397590362,7.952878222712405,0.02163553528182849,4.876550421262787
-0.0005445149397590362,7.946271403629015,0.01830980567966733,4.844929992557732
-0.0005444949397590362,7.929754355920538,0.005006887271024496,4.849922691826952
-0.0005444749397590362,7.939664584545625,0.01165834647534592,4.854915391096171
-0.0005444549397590361,7.942967994087272,0.005006887271024496,4.841601526378265
-0.0005444349397590361,7.929754355920551,0.005006887271018446,4.844929992557774
-0.0005444149397590361,7.93305776546221,0.003344022469895079,4.856579624185916
-0.0005443949397590361,7.926450946378867,-0.009958895938687264,4.858243857275641
-0.0005443749397590361,7.939664584545646,-0.003307436734347697,4.8532511580064
-0.0005443549397590361,7.951226517941558,0.0133212112764079,4.83660882710906
-0.0005443349397590362,7.951226517941516,0.003344022469937426,4.851586924916679
-0.0005443149397590362,7.928102651149691,1.829286778320949e-05,4.844929992557732
-0.0005442949397590362,7.929754355920538,0.009995481674265783,4.824959195480855
-0.0005442749397590362,7.929754355920538,0.008332616873184762,4.843265759467992
-0.0005442549397590362,7.957833337024897,0.01165834647533987,4.831616127839835
-0.0005442349397590361,7.951226517941546,-0.001644571933273614,4.829951894750171
-0.0005442149397590361,7.947923108399845,0.005006887271048694,4.856579624185916
-0.0005441949397590361,7.942967994087296,0.01165834647530357,4.858243857275626
-0.0005441749397590361,7.936361175003947,1.829286778018475e-05,4.851586924916691
-0.0005441549397590361,7.946271403629024,-0.001644571933328059,4.851586924916667
-0.0005441349397590362,7.951226517941507,-0.01827321994406551,4.838273060198767
-0.0005441149397590362,7.923147536837148,0.001681157668863342,4.834944594019293
-0.0005440949397590362,7.94957481317071,-0.001644571933297811,4.838273060198773
-0.0005440749397590362,7.951226517941558,1.829286778320949e-05,4.829951894750074
-0.0005440549397590362,7.94296799408732,-0.001644571933297811,4.841601526378253
-0.0005440349397590361,7.952878222712351,0.02163553528178614,4.836608827109045
-0.0005440149397590361,7.938012879774819,0.00999548167428998,4.839937293288506
-0.0005439949397590361,7.949574813170674,0.01664694087854486,4.838273060198779
-0.0005439749397590361,7.939664584545612,0.005006887271021472,4.839937293288549
-0.0005439549397590361,7.933057765462258,0.003344022469931376,4.859908090365353
-0.0005439349397590361,7.946271403629,-0.003307436734347697,4.839937293288528
-0.0005439149397590362,7.938012879774771,0.01332121127639883,4.848258458737218
-0.0005438949397590362,7.934709470233082,-0.001644571933297811,4.851586924916691
-0.0005438749397590362,7.934709470233082,0.008332616873184762,4.844929992557732
-0.0005438549397590362,7.936361175003929,0.01332121127642605,4.848258458737211
-0.0005438349397590362,7.946271403628997,0.001681157668884515,4.864900789634579
-0.0005438149397590361,7.909933898670126,0.008332616873160564,4.823294962390782
-0.0005437949397590361,7.843865707836287,0.00168115766889359,4.731762142455133
-0.0005437749397590361,7.795966269481736,0.009995481674253683,4.650214721058139
-0.0005437549397590361,7.716684440481131,0.003344022469907178,4.626915457801864
-0.0005437349397590361,7.68199864029357,-0.01661035514300655,4.648550487968475
-0.0005437149397590362,7.779449221773623,-0.008296031137610156,4.666857051955604
-0.0005436949397590362,7.900023670045281,-0.003307436734377944,4.680170916673497
-0.0005436749397590362,7.947923108399863,0.01165834647534592,4.688492082122196
-0.0005436549397590362,7.916540717753758,0.01498407607750707,4.665192818865839
-0.0005436349397590362,7.904978784357824,0.01830980567966733,4.665192818865839
-0.0005436149397590361,7.875248098482525,0.001681157668839144,4.661864352686353
-0.0005435949397590361,7.86368616508673,-0.004970301535397582,4.660200119596699
-0.0005435749397590361,7.89011344142022,0.01165834647532777,4.681835149763231
-0.0005435549397590361,7.896720260503625,0.006669752072098579,4.680170916673513
-0.0005435349397590361,7.918192422524626,0.003344022469952549,4.688492082122169
-0.0005435149397590361,7.929754355920526,0.008332616873184762,4.673513984314583
-0.0005434949397590362,7.923147536837148,0.008332616873184762,4.698477480660634
-0.0005434749397590362,7.933057765462234,0.01332121127642605,4.695149014481155
-0.0005434549397590362,7.936361175003929,-0.004970301535458077,4.716784044647771
-0.0005434349397590362,7.936361175003929,-0.004970301535458077,4.72510521009647
-0.0005434149397590362,7.934709470233084,0.01830980567962499,4.751732939532258
-0.0005433949397590361,7.933057765462264,-0.004970301535409682,4.751732939532361
-0.0005433749397590361,7.941316289316454,0.008332616873172662,4.766711037340013
-0.0005433549397590361,7.93636117500392,0.005006887271012397,4.7800249020579
-0.0005433349397590361,7.931406060691365,-0.001644571933285713,4.790010300596339
-0.0005433149397590361,7.91984412729545,0.00500688727103357,4.799995699134798
-0.0005432949397590362,7.918192422524608,0.009995481674283931,4.82163072930143
-0.0005432749397590362,7.919844127295453,0.01997267048074836,4.851586924916691
-0.0005432549397590362,7.911585603441215,0.008332616873184762,4.868229255814088
-0.0005432349397590362,7.913237308212063,0.008332616873184762,4.878214654352527
-0.0005432149397590362,7.911585603441218,0.005006887271030545,4.87655042126279
-0.0005431949397590361,7.923147536837148,0.008332616873208959,4.903178150698732
-0.0005431749397590361,7.923147536837142,0.01498407607744053,4.933134346313975
-0.0005431549397590361,7.921495832066361,-0.00330743673431745,4.943119744852377
-0.0005431349397590361,7.938012879774777,0.01332121127641092,4.943119744852416
-0.0005431149397590361,7.938012879774762,0.005006887271000298,4.964754775019059
-0.0005430949397590361,7.929754355920545,-0.008296031137634354,5.000535786448401
-0.0005430749397590362,7.933057765462234,-0.01661035514302167,5.002200019538138
-0.0005430549397590362,7.936361175003929,0.005006887271024496,5.033820448243193
-0.0005430349397590362,7.929754355920538,-0.003307436734377944,5.058783944589289
-0.0005430149397590362,7.944619698858167,-0.01661035514302167,5.060448177679029
-0.0005429949397590362,7.946271403629012,-0.008296031137634354,5.08541167402508
-0.0005429749397590361,7.947923108399809,0.00500688727098215,5.100389771832831
-0.0005429549397590361,7.933057765462258,-0.006633166336551197,5.113703636550719
-0.0005429349397590361,7.939664584545628,-0.009958895938711463,5.118696335819966
-0.0005429149397590361,7.94131628931645,-0.01661035514298537,5.143659832166062
-0.0005428949397590361,7.929754355920521,0.003344022469949524,5.168623328512142
-0.0005428749397590362,7.919844127295504,0.006669752072068332,5.185265659409507
-0.0005428549397590362,7.947923108399863,-0.01328462554086052,5.18360142631977
-0.0005428349397590362,7.918192422524605,-0.01494749034194065,5.215221855024825
-0.0005428149397590362,7.916540717753758,-0.01993608474518194,5.225207253563264
-0.0005427949397590362,7.906630489128689,-0.008296031137640403,5.23186418592221
-0.0005427749397590361,7.918192422524623,-0.01328462554077582,5.240185351371018
